MyHDL/test_elevator.vcd
$date
    Sun Jun 14 22:11:56 2015
$end
$version
    MyHDL 0.8.1
$end
$timescale
    100ms
$end

$scope module test_elevator $end
$var reg 1 ! A $end
$var reg 1 " reset $end
$var reg 1 # B $end
$var reg 4 $ LED $end
$var reg 1 % A_latch $end
$var reg 4 & F $end
$var reg 1 ' clk $end
$var reg 4 ( Q $end
$var reg 1 ) en $end
$var reg 1 * B_latch $end
$var reg 4 + D $end
$scope module elevator_inst $end
$var reg 1 ! A $end
$var reg 1 " reset $end
$var reg 1 # B $end
$var reg 4 $ LED $end
$var reg 1 % A_latch $end
$var reg 4 & F $end
$var reg 1 ' clk $end
$var reg 4 ( Q $end
$var reg 1 ) en $end
$var reg 1 * B_latch $end
$var reg 4 + D $end
$upscope $end
$upscope $end

$enddefinitions $end
$dumpvars
0!
0"
0#
b0000 $
0%
b0000 &
0'
b0000 (
1)
0*
b0000 +
$end
b0001 $
#1
#2
#3
#4
#5
#6
#7
#8
#9
#10
1'
#11
#12
#13
#14
#15
#16
#17
#18
#19
#20
0'
#21
#22
#23
#24
#25
#26
#27
#28
#29
#30
1'
#31
#32
#33
#34
#35
#36
#37
#38
#39
#40
0'
#41
#42
#43
#44
#45
b0100 &
1#
1*
b0101 +
#46
b0000 &
#47
#48
#49
#50
1'
b0101 (
b0010 +
b0010 $
#51
#52
#53
#54
#55
#56
#57
#58
#59
#60
b0001 &
0'
0#
0*
#61
b0000 &
#62
#63
#64
#65
#66
#67
#68
#69
#70
1'
b0010 (
b1001 +
b0100 $
#71
#72
#73
#74
#75
#76
#77
#78
#79
#80
0'
#81
#82
#83
#84
#85
#86
#87
#88
#89
#90
1'
b1001 (
b0010 $
b0000 +
#91
#92
#93
#94
#95
#96
#97
#98
#99
#100
0'
#101
#102
#103
#104
#105
#106
#107
#108
#109
#110
1'
b0000 (
b0001 $
#111
#112
#113
#114
#115
#116
#117
#118
#119
#120
0'
#121
#122
#123
#124
#125
#126
#127
#128
#129
#130
1'
#131
#132
#133
#134
#135
#136
#137
#138
#139
#140
0'
#141
#142
#143
#144
#145
#146
#147
#148
#149
#150
b0010 &
1'
1!
1%
b0001 +
#151
#152
#153
#154
#155
#156
#157
#158
#159
#160
0'
#161
#162
#163
#164
#165
#166
#167
#168
#169
#170
1'
b0001 (
b0010 $
#171
#172
#173
#174
#175
#176
#177
#178
#179
#180
0'
#181
#182
#183
#184
#185
#186
#187
#188
#189
#190
1'
#191
#192
#193
#194
#195
#196
#197
#198
#199
#200
b0011 &
0'
